…
N779JB

N947UW

N959UW

# type your code for Question 8 here, and Knit
nycflights <- nycflights %>%
  mutate(avg_speed = (distance / (air_time/60)))

nycflights %>%
  group_by(tailnum) %>% arrange(desc(avg_speed))

## # A tibble: 32,735 x 18
## # Groups:   tailnum [3,490]
##     year month   day dep_time dep_delay arr_time arr_delay carrier tailnum
##    <int> <int> <int>    <int>     <dbl>    <int>     <dbl> <chr>   <chr>  
##  1  2013     5    25     1709         9     1923       -14 DL      N666DN 
##  2  2013     2    21     2355        -3      412       -26 B6      N779JB 
##  3  2013    11    16     2349       -10      402       -38 B6      N571JB 
##  4  2013     2    22      831         4     1258       -18 B6      N568JB 
##  5  2013    12     5     1628        -2     2045       -45 AA      N5EHAA 
##  6  2013     3     9     2214        79      229        43 B6      N656JB 
##  7  2013     2    21     2228        -2      318         6 B6      N789JB 
##  8  2013     3    11     1344        19     1657       -12 B6      N516JB 
##  9  2013    11    17      944        -3     1408       -22 B6      N648JB 
## 10  2013    11    15      945        -2     1407       -23 B6      N510JB 
## # ... with 32,725 more rows, and 9 more variables: flight <int>,
## #   origin <chr>, dest <chr>, air_time <dbl>, distance <dbl>, hour <dbl>,
## #   minute <dbl>, dep_type <chr>, avg_speed <dbl>
…
